<svg width="20px" height="319px" viewBox="0 0 20 319" xmlns="http://www.w3.org/2000/svg">
  <g fill="none" fill-rule="evenodd">
    <g transform="rotate(90 -72.5 91.5)">
      <circle stroke="#337BB0" cx="9" cy="9" r="9"/>
      <circle stroke="#28628C" fill-opacity=".3" fill="#32618C" cx="36" cy="9" r="9"/>
      <circle stroke="#CCC" cx="63" cy="9" r="9"/>
      <path d="M91 18c4.97 0 9-4.03 9-9s-4.03-9-9-9-9 4.03-9 9 4.03 9 9 9zm0-6c1.657 0 3-1.343 3-3s-1.343-3-3-3-3 1.343-3 3 1.343 3 3 3z" fill="#337BB0"/>
      <path d="M118 18c4.97 0 9-4.03 9-9s-4.03-9-9-9-9 4.03-9 9 4.03 9 9 9zm0-6c1.657 0 3-1.343 3-3s-1.343-3-3-3-3 1.343-3 3 1.343 3 3 3z" fill="#28628C"/>
      <path d="M145 18c4.97 0 9-4.03 9-9s-4.03-9-9-9-9 4.03-9 9 4.03 9 9 9zm0-6c1.657 0 3-1.343 3-3s-1.343-3-3-3-3 1.343-3 3 1.343 3 3 3z" fill="#CCC"/>
    </g>
    <g transform="rotate(90 9 10)">
      <rect stroke="#407AB1" transform="rotate(-90 9 9)" width="18" height="18" rx="1"/>
      <rect stroke="#CCC" transform="rotate(-90 63 9)" x="54" width="18" height="18" rx="1"/>
      <rect stroke="#32618C" fill-opacity=".3" fill="#32618C" transform="rotate(-90 36 9)" x="27" width="18" height="18" rx="1"/>
      <path d="M109.993 18c-.548 0-.993-.445-.993-.993V.993c0-.548.445-.993.993-.993h16.014c.548 0 .993.445.993.993v16.014c0 .548-.445.993-.993.993h-16.014zm12.25-6.81l-3.655 3.686-1.073-1.143 2.54-2.54-6.95-6.926 1.073-1.142 8.065 8.064" fill="#32618C"/>
      <path d="M82.993 18c-.548 0-.993-.445-.993-.993V.993c0-.548.445-.993.993-.993h16.014c.548 0 .993.445.993.993v16.014c0 .548-.445.993-.993.993H82.993zm12.25-6.81l-3.655 3.686-1.073-1.143 2.54-2.54-6.95-6.926 1.073-1.142 8.065 8.064" fill="#407AB1"/>
      <path d="M136.993 18c-.548 0-.993-.445-.993-.993V.993c0-.548.445-.993.993-.993h16.014c.548 0 .993.445.993.993v16.014c0 .548-.445.993-.993.993h-16.014zm12.25-6.81l-3.655 3.686-1.073-1.143 2.54-2.54-6.95-6.926 1.073-1.142 8.065 8.064" fill="#CCC"/>
    </g>
  </g>
</svg>
