<svg xmlns="http://www.w3.org/2000/svg" width="22.707" height="22.707" viewBox="0 0 22.707 22.707">
  <g id="Grupo_21" data-name="Grupo 21" transform="translate(-282.146 -174.146)">
    <line id="Línea_12" data-name="Línea 12" x1="22" y2="22" transform="translate(282.5 174.5)" fill="none" stroke="#707070" stroke-width="1"/>
    <line id="Línea_13" data-name="Línea 13" x1="22" y1="22" transform="translate(282.5 174.5)" fill="none" stroke="#707070" stroke-width="1"/>
  </g>
</svg>
