<svg id="information_1_" data-name="information (1)" xmlns="http://www.w3.org/2000/svg" width="31.58" height="31.58" viewBox="0 0 31.58 31.58">
  <g id="Grupo_10" data-name="Grupo 10">
    <g id="Grupo_9" data-name="Grupo 9">
      <path id="Trazado_2" data-name="Trazado 2" d="M192.144,108.285a3.143,3.143,0,0,0,.173.318c.058.087.144.173.2.26a2.6,2.6,0,0,0,.289.26.973.973,0,0,0,.346.173,1.429,1.429,0,0,0,.375.115,1.776,1.776,0,0,0,.375.029,1.646,1.646,0,0,0,.375-.029,1.034,1.034,0,0,0,.318-.115h.029a2.153,2.153,0,0,0,.346-.2,1.868,1.868,0,0,0,.26-.231l.029-.029a1.585,1.585,0,0,0,.2-.26.9.9,0,0,0,.144-.289c0-.029,0-.029.029-.058a1.868,1.868,0,0,0,.115-.375,2.453,2.453,0,0,0,0-.751,2.682,2.682,0,0,0-.115-.375,1.638,1.638,0,0,0-.346-.52l-.058-.058a2.524,2.524,0,0,0-.289-.231c-.115-.058-.2-.115-.318-.173a1.626,1.626,0,0,0-.346-.115,1.774,1.774,0,0,0-.375-.029,1.645,1.645,0,0,0-.375.029,1.628,1.628,0,0,0-.346.115h-.029a3.147,3.147,0,0,0-.318.173,2.521,2.521,0,0,0-.289.231,1.868,1.868,0,0,0-.231.26,3.143,3.143,0,0,0-.173.318,1.625,1.625,0,0,0-.116.346,1.775,1.775,0,0,0-.029.375,1.646,1.646,0,0,0,.029.375A2.618,2.618,0,0,0,192.144,108.285Z" transform="translate(-178.144 -97.979)"/>
      <path id="Trazado_3" data-name="Trazado 3" d="M182.8,188.623h-.664v-7.072a.745.745,0,0,0-.751-.751h-3.031a.745.745,0,0,0-.751.751v1.559a.745.745,0,0,0,.751.751h.606v4.792h-.606a.745.745,0,0,0-.751.751v1.559a.745.745,0,0,0,.751.751H182.8a.745.745,0,0,0,.751-.751V189.4A.77.77,0,0,0,182.8,188.623Z" transform="translate(-164.783 -167.752)"/>
      <path id="Trazado_4" data-name="Trazado 4" d="M15.79,0A15.79,15.79,0,1,0,31.58,15.79,15.793,15.793,0,0,0,15.79,0Zm0,29.5A13.711,13.711,0,1,1,29.5,15.79,13.724,13.724,0,0,1,15.79,29.5Z"/>
    </g>
  </g>
</svg>
