{
    "factura": "89612310",
    "referencias": [
      {
        "cantidad":2,
        "marca":"ESPEVÄR",
        "descripcion":"Cama continental",
        "referencia":"092.611.30",
        "aceptamontaje":true,
        "aceptaretirada":false,
        "contratarmontaje":false,
        "contratarretirada":false,
        "cantidadmontaje":1,
        "cantidarretirada":1
      },
      {
        "cantidad":1,
        "marca":"BRIMNES",
        "descripcion":"Diván con 2 cajones y 2 colchones, blanco, Malfors Firmeza media, 80x200 cm",
        "referencia":"092.611.31",
        "aceptamontaje":true,
        "aceptaretirada":false,
        "contratarmontaje":false,
        "contratarretirada":false,
        "cantidadmontaje":1,
        "cantidarretirada":1
      },
      {
        "cantidad":2,
        "marca":"PAX",
        "descripcion":"Armario modular",
        "referencia":"092.611.32",
        "aceptamontaje":true,
        "aceptaretirada":false,
        "contratarmontaje":false,
        "contratarretirada":false,
        "cantidadmontaje":1,
        "cantidarretirada":1,
        "elementos":[
          {
            "cantidad":1,
            "descripcion":"Armario modular 100x58x236cm",
            "marca":"PAX"
          },{
            "cantidad":2,
            "descripcion":"Puerta, 50x229",
            "marca":"PAX"
          }
        ]
      }]
  }